…
Bechdel test data
-----------------

We're going to start by playing with data collected by the website FiveThirtyEight on movies and [the Bechdel test](https://en.wikipedia.org/wiki/Bechdel_test).

To begin, let's just preview our data. There are a couple ways to do that. One is just to type the name of the data and execute it like a piece of code.

``` r
bechdel
```

    ## # A tibble: 1,794 x 15
    ##     year imdb  title test  clean_test binary budget domgross intgross code 
    ##    <int> <chr> <chr> <chr> <ord>      <chr>   <int>    <dbl>    <dbl> <chr>
    ##  1  2013 tt17… 21 &… nota… notalk     FAIL   1.30e7 25682380   4.22e7 2013…
    ##  2  2012 tt13… Dred… ok-d… ok         PASS   4.50e7 13414714   4.09e7 2012…
    ##  3  2013 tt20… 12 Y… nota… notalk     FAIL   2.00e7 53107035   1.59e8 2013…
    ##  4  2013 tt12… 2 Gu… nota… notalk     FAIL   6.10e7 75612460   1.32e8 2013…
    ##  5  2013 tt04… 42    men   men        FAIL   4.00e7 95020213   9.50e7 2013…
    ##  6  2013 tt13… 47 R… men   men        FAIL   2.25e8 38362475   1.46e8 2013…
    ##  7  2013 tt16… A Go… nota… notalk     FAIL   9.20e7 67349198   3.04e8 2013…
    ##  8  2013 tt21… Abou… ok-d… ok         PASS   1.20e7 15323921   8.73e7 2013…
    ##  9  2013 tt18… Admi… ok    ok         PASS   1.30e7 18007317   1.80e7 2013…
    ## 10  2013 tt18… Afte… nota… notalk     FAIL   1.30e8 60522097   2.44e8 2013…
    ## # … with 1,784 more rows, and 5 more variables: budget_2013 <int>,
    ## #   domgross_2013 <dbl>, intgross_2013 <dbl>, period_code <int>,
    ## #   decade_code <int>
…
